<?xml version="1.0" encoding="utf-8"?>
<!-- Generator: Adobe Illustrator 16.0.4, SVG Export Plug-In . SVG Version: 6.00 Build 0)  -->
<!DOCTYPE svg PUBLIC "-//W3C//DTD SVG 1.1//EN" "http://www.w3.org/Graphics/SVG/1.1/DTD/svg11.dtd">
<svg version="1.1" id="Capa_1" xmlns="http://www.w3.org/2000/svg" xmlns:xlink="http://www.w3.org/1999/xlink" x="0px" y="0px"
	 width="612px" height="792px" viewBox="0 0 612 792" enable-background="new 0 0 612 792" xml:space="preserve">
<path d="M432.105,419.906l53.787-53.191v255.199c0,7.57-2.688,13.945-8.066,19.125s-11.654,7.77-18.826,7.77H73.512
	c-7.172,0-13.447-2.59-18.826-7.77s-8.068-11.555-8.068-19.125V256.149c0-7.57,2.689-13.945,8.068-19.125s11.654-7.77,18.826-7.77
	h273.128l-53.791,53.789H100.405V595.02h331.701V419.906z M353.812,167.098l48.408,46.617L240.258,375.68l97.418,97.417
	l161.965-161.965l50.203,51.398l15.539-219.34L353.812,167.098z"/>
</svg>
